name,capital,population,area
China,Beijing,1377422166,9640011.0
India,New Delhi,1295210000,3287590.0
United States of America,"Washington, D.C.",323947000,9629091.0
Indonesia,Jakarta,258705000,1904569.0
Brazil,Brasília,206135893,8515767.0
Pakistan,Islamabad,194125062,881912.0
Nigeria,Abuja,186988000,923768.0
Bangladesh,Dhaka,161006790,147570.0
Russian Federation,Moscow,146599183,17124442.0
Japan,Tokyo,126960000,377930.0
